{
  "name": "Django",
  "description": "Package for Django application.",
  "author": {
    "name": "Skyflow",
    "email": "contact@skyflow.io",
    "site": "https:\/\/skyflow.io",
    "github": "https:\/\/github.com\/skyflow-io"
  },
  "slug": "django",
  "logo": "django.png"
}