{
  "name": "Apache",
  "description": "Apache HTTP Server.",
  "author": {
    "name": "Skyflow",
    "email": "contact@skyflow.io",
    "site": "https:\/\/skyflow.io",
    "github": "https:\/\/github.com\/skyflow-io"
  },
  "slug": "apache",
  "logo": "apache.png"
}