{
  "name": "Docker",
  "slug": "docker",
  "description": "This module allows you to manage your Docker environment with custom tools that will simplify the use of Docker.",
  "logo": "docker.png",
  "alias": "D",
  "author": {
    "name": "Skyflow",
    "email": "contact@skyflow.io",
    "site": "https:\/\/skyflow.io",
    "github": "https:\/\/github.com\/skyflow-io"
  }
}